Name,LocationID
10 Magnificent Killers,1
18 Fingers Of Death! (Old Version),1
4 Film Favorites: Chris Tucker Collection (2-Disc): Rush Hour / Rush Hour 2 / Rush Hour 3 / Money Talks,1
4 Film Favorites: Eddie Murphy Cop Collection,1
Advance To The Rear (Archive Collection/ On Demand DVD-R/ Remastered),1
Adventures In Babysitting,1
Adventures In Babysitting (25th Anniversary Edition/ Blu-ray),1
Adventures Of Ford Fairlane (Anchor Bay),1
Adventures Of Ford Fairlane (Anchor Bay/ Blu-ray),1
Adventures Of Ford Fairlane (Fox),1
Afro Ninja,1
Agent Cody Banks (Special Edition),1
Agent Cody Banks (Special Edition) / Agent Cody Banks 2: Destination London (Special Edition) (Back-To-Back),1
Agent Cody Banks (Special Edition) / Agent Cody Banks 2: Destination London (Special Edition) (Double Feature),1
Agent Cody Banks (Special Edition) / Agent Cody Banks 2: Destination London (Special Edition) (Side-By-Side),1
Agent Cody Banks (Special Edition) / Catch That Kid (Special Edition),1
Agent Cody Banks (Special Edition) / City Of Ember,1
Agent Cody Banks (Special Edition/ Old Version),1
Agent Cody Banks (UMD),1
Air America (Artisan),1
Air America (Artisan/ Blu-ray),1
Air America (Artisan/ SensorMatic),1
Air America (Artisan/ Special Edition),1
Air America (Artisan/ Special Edition/ Old Version),1
Air America (Lions Gate/ Blu-ray),1
Ali Baba Nights (a.k.a. Chun Chin Chow/ On Demand DVD-R),1
All American Zombie Drugs,1
All The Marbles (Archive Collection/ On Demand DVD-R),1
Almost Sharkproof,1
Ambulance (Limited Edition Collection/ On Demand DVD-R),1
American Dreamer (1984),1
American Dreamer (1984/ Checkpoint),1
American Dreamer (1984/ DVD/CD Combo),1
American Dreamer (1984/ DVD/CD Combo/ Checkpoint),1
American Hippie In Israel (Limited Edition/ DVD & Blu-ray Combo),1
American Strays (Ardustry),1
American Strays (Simitar),1
Angels Over Broadway (Choice Collection/ On Demand DVD-R),1
Angels' Brigade,1
Another 48 Hrs. [Hours] (Paramount),1
Another 48 Hrs. [Hours] (Paramount/ Checkpoint),1
Another 48 Hrs. [Hours] (Warner Brothers),1
Army Of Darkness (Anchor Bay/ Boomstick Edition/ Special Edition),1
Army Of Darkness (Anchor Bay/ Director's Cut/ Bootleg/ Special Edition),1
Army Of Darkness (Anchor Bay/ Director's Cut/ Special Edition),1
Army Of Darkness (Anchor Bay/ Limited 2-Disc/ Special Edition),1
Army Of Darkness (Anchor Bay/ Theatrical Version/ Special Edition),1
Army Of Darkness (Shout! Factory/ Blu-ray),1
Army Of Darkness (Universal),1
Army Of Darkness (Universal/ Blu-ray),1
Army Of Darkness (Universal/ DVD & HD-DVD Combo),1
Army Of Darkness (Universal/ HD-DVD),1
Army Of Darkness (Universal/ Screwhead Edition),1
Army Of Darkness (Universal/ Screwhead Edition/ Blu-ray/ 2009 Release),1
Army Of Darkness (Universal/ Theatrical Version),1
Around The World In 80 Days (1956/ Special Edition),1
Around The World In 80 Days (1989/ A.D. Vision),1
Around The World In 80 Days (1989/ A.D. Vision/ Old Version),1
Around The World In 80 Days (1989/ Image),1
Around The World In 80 Days (2004/ Pan & Scan),1
Around The World In 80 Days (2004/ Widescreen),1
Ass Backwards,1
Attack The Block,1
Attack The Block (Blu-ray),1
Austin Powers: International Man Of Mystery (UMD),1
Avenging Angelo (Columbia/Tri-Star/ Special Edition),1
Avenging Angelo (First Look/ Old Version),1
Babymakers,1
Babymakers (Blu-ray),1
Bad Ass 2: Bad Asses,1
Bad Ass 2: Bad Asses (Blu-Ray),1
Bad Girls' Dormitory (Osiris / Westlake),1
Bad Girls' Dormitory (Shriek Show),1
Bad Movie Police: Crimewave: Galaxy Of The Dinosaurs / Chickboxer / Humanoids From Atlantis / Zombie Cop / Maximium Impact,1
Batman: The Movie (Special Edition),1
Batman: The Movie (UMD),1
Battle B-Boy (Cinema Epoch),1
Battle Creek Brawl (Fox),1
Battle Of Broadway (On Demand DVD-R),1
Beast Of Borneo (Alpha Video),1
Beast Of Borneo (Sinister Cinema/ On Demand DVD-R),1
Between Kings And Queens,1
Beverly Hills Cop (Blu-ray w/ Digital Copy),1
Beverly Hills Cop (Blu-ray w/ Digital Copy/ Checkpoint),1
Beverly Hills Cop (Special Edition),1
Beverly Hills Cop (Special Edition/ Checkpoint),1
Beverly Hills Cop (Special Edition/ I Love The 80's),1
Beverly Hills Cop (Special Edition/ I Love The 80's/ Checkpoint),1
Beverly Hills Cop (Special Edition/ SensorMatic),1
Beverly Hills Cop Collection: Triple Feature,1
Beverly Hills Cop Collection: Triple Feature (Checkpoint),1
Beverly Hills Cop II,1
Beverly Hills Cop II (Checkpoint),1
Beverly Hills Cop II (I Love The 80's),1
Beverly Hills Cop II (I Love The 80's/ Checkpoint),1
Beverly Hills Cop III,1
Beverly Hills Cop III (Checkpoint),1
Beverly Hills Cop: The Complete Line Up,1
Beverly Hills Cop: The Complete Line Up (Checkpoint),1
Big (Widescreen) / Cast Away (Widescreen),1
Big Bad Mama (Buena Vista/ Special Edition),1
Big City Blues (Platinum) / L.A.P.D.: To Protect And Serve,1
Big Hit (Columbia/Tri-Star w/ Digital Copy),1
Big Hit (Columbia/Tri-Star),1
Big Hit (Columbia/Tri-Star/ Blu-ray),1
Big Hit (Columbia/Tri-Star/ Superbit),1
Big Hit (Columbia/Tri-Star/ UMD),1
Big Hit (Image),1
Big Hit (Image/ Blu-ray),1
Big Shots (1987/ Archive Collection/ On Demand DVD-R),1
Big Trouble In Little China / Kung Pow: Enter The Fist,1
Biker Boyz (DreamWorks/ Widescreen) / Head Of State (Widescreen/ Special Edition) (2-Pack),1
Bitch Slap (Fox/ Blu-ray),1
Black Jack (1979/ 35th Anniversary Edition),1
Black Jack (1979/ 35th Anniversary Edition/ Blu-ray),1
Bleak Future,1
Bloodfist 5: Human Target,1
BloodRayne: The Third Reich (R-Rated Version),1
BloodRayne: The Third Reich (Unrated Director's Cut w/ Digital Copy),1
BloodRayne: The Third Reich (Unrated Director's Cut),1
BloodRayne: The Third Reich (Unrated Director's Cut/ Blu-ray),1
Bloody Mallory,1
Blue Iguana,1
Blue Streak / National Security,1
Blue Streak / National Security (Old Version),1
Bootleggers (1974),1
Boris And Natasha (MGM/UA/ Limited Edition Collection/ On Demand DVD-R),1
Bristol Boys,1
Brothers Grimm (EMI/ HD-DVD),1
Brothers Grimm (Miramax Lions Gate/ Blu-ray/ Old Version),1
Brothers Grimm (Miramax Lions Gate/ Old Version),1
Brothers Grimm (Miramax),1
Brothers Grimm (Miramax/ Blu-ray),1
Brothers Grimm (Miramax/ UMD),1
Buccaneer's Girl (Vault Series/ On Demand DVD-R),1
Buddha Wild: Monk In A Hut,1
Bulletproof (1996 w/ Movie Money),1
Bulletproof (1996),1
Bulletproof (1996/ Blu-ray),1
Bulletproof (1996/ HD-DVD),1
Bulletproof (1996/ Old Version),1
